…
    ## New names:
    ## • `EDC dev %` -> `EDC dev %...18`
    ## • `EDC dev %` -> `EDC dev %...21`

``` r
#electro_data %>% write_csv(file = write_file_electro_data)
electro_data
```

    ## # A tibble: 30 × 9
    ##    site  hzn   rep   bulk_agg fe_ii_umol_per_g fe_tot_xrf_ug_g edc_umol_g_soil
    ##    <chr> <chr> <chr> <chr>               <dbl>           <dbl>           <dbl>
    ##  1 T     1     1     In                  5.77           17703.           5.73 
    ##  2 T     1     2     In                  5.84           17703.           2.33 
    ##  3 T     1     3     In                  5.05           17703.           3.67 
    ##  4 T     2     1     In                  2.82           18220            0.420
    ##  5 T     2     2     In                  0.884          18220            1.82 
    ##  6 T     2     3     In                  0.292          18220            0.666
    ##  7 R     1     1     In                  0.378          13263.           0.623
    ##  8 R     1     2     In                  0.401          13263.           1.04 
    ##  9 R     1     3     In                  0.484          13263.           1.36 
    ## 10 R     2     1     In                  0.538          12010            0.975
    ## # ℹ 20 more rows
    ## # ℹ 2 more variables: eac_umol_g_soil <dbl>, eac_to_eec <dbl>
…
    ## Warning: Expected 3 pieces. Additional pieces discarded in 6 rows [19, 20, 25, 30, 35,
    ## 40].

    ## Warning: Expected 3 pieces. Missing pieces filled with `NA` in 34 rows [1, 2, 3, 4, 5,
    ## 6, 7, 8, 9, 10, 11, 12, 13, 14, 15, 16, 17, 18, 21, 22, ...].

``` r
ddpcr_data_16s
```

    ## # A tibble: 36 × 7
    ##    samp  bulk_agg dilution sixteenS_conc sixteenS_min sixteenS_max droplets
    ##    <chr> <chr>    <chr>            <dbl>        <dbl>        <dbl>    <dbl>
    ##  1 Water <NA>     <NA>              0.59          0.4          1.1    16042
    ##  2 RB1   B        <NA>             29.3          27.9         32.3    15749
    ##  3 RC3   B        <NA>             13            11.9         14.9    15066
    ##  4 TB1   B        <NA>             38.9          37.2         42.1    17266
    ##  5 TC1   B        <NA>             26.4          25           29.1    15878
    ##  6 RA1   B        <NA>            101.           98.6        107      15774
    ##  7 RB2   B        <NA>             11.1          10.1         13      14497
    ##  8 TA1   B        <NA>            129.          126.         135.     15728
    ##  9 TB2   B        <NA>             18.1          16.9         20.3    15950
    ## 10 TC2   B        <NA>             19.8          18.6         22.3    14945
    ## # ℹ 26 more rows
…
    ## `summarise()` has grouped output by 'site', 'hzn', 'rep'. You can override
    ## using the `.groups` argument.

``` r
data_16s_adj
```

    ## # A tibble: 30 × 6
    ## # Groups:   site, hzn, rep [18]
    ##    site  hzn     rep bulk_agg sixteenS_conc_adj sixteenS_copies_per_g
    ##    <chr> <chr> <int> <chr>                <dbl>                 <dbl>
    ##  1 R     1         1 B                  2577500           1088986926.
    ##  2 R     1         1 IN                  346250            152385113.
    ##  3 R     1         2 B                   291250            118546946.
    ##  4 R     1         2 IN                  231250             87153016.
    ##  5 R     1         3 B                  1033750            433286577.
    ##  6 R     1         3 IN                  366250            159906498.
    ##  7 R     2         1 B                   713750            320340086.
    ##  8 R     2         1 IN                   60250             27040967.
    ##  9 R     2         2 B                   258750            115134528.
    ## 10 R     2         2 IN                  225000             96112302.
    ## # ℹ 20 more rows
…
    ## `summarise()` has grouped output by 'site', 'hzn', 'rep'. You can override
    ## using the `.groups` argument.

``` r
mcra_data_av
```

    ## # A tibble: 29 × 11
    ## # Groups:   site, hzn, rep [17]
    ##    site  hzn     rep bulk_agg copies_per_ul copies_per_ul_min copies_per_ul_max
    ##    <chr> <chr> <int> <chr>            <dbl>             <dbl>             <dbl>
    ##  1 R     1         1 B                3.63              2.65              4.84 
    ##  2 R     1         1 IN               1.61              0.976             2.48 
    ##  3 R     1         2 B                3.31              2.36              4.48 
    ##  4 R     1         2 IN               2.80              1.92              3.91 
    ##  5 R     1         3 B                2.03              1.31              2.98 
    ##  6 R     1         3 IN               1.06              0.563             1.80 
    ##  7 R     2         1 B                0.882             0                 1.52 
    ##  8 R     2         1 IN               0                 0                 0.764
    ##  9 R     2         2 B                1.79              1.13              2.67 
    ## 10 R     2         2 IN               1.61              1.01              2.40 
    ## # ℹ 19 more rows
    ## # ℹ 4 more variables: mass_extract_dry_g <dbl>, copies_per_g <dbl>,
    ## #   copies_per_g_min <dbl>, copies_per_g_max <dbl>
…
