…
    ## Warning: Expected 2 pieces. Missing pieces filled with `NA` in 7 rows [1, 15,
    ## 20, 25, 30, 35, 40].

``` r
ddpcr_data_mcra 
```

    ## # A tibble: 33 × 10
    ##    samp  bulk_agg mcra_conc mcra_min mcra_max droplets site  hzn     rep mcra_…¹
    ##    <chr> <chr>        <dbl>    <dbl>    <dbl>    <dbl> <chr> <chr> <int>   <dbl>
    ##  1 RB1   B            25.5     19        42      15051 R     B         1   15051
    ##  2 RC3   B            17.2     12.5      30.5    16948 R     C         3   16948
    ##  3 TB1   B            52.5     42.5      72.5    17345 T     B         1   17345
    ##  4 TC3   B             6.25     3.25     16.5    14205 T     C         3   14205
    ##  5 RA1   B           410      355       465      15399 R     A         1   15399
    ##  6 RB2   B            17       12.2      30      17346 R     B         2   17346
    ##  7 TA1   B            80       67.5     105      16340 T     A         1   16340
    ##  8 TB2   B            47.5     37.5      67.5    16270 T     B         2   16270
    ##  9 TC3   B             7.5      4.25     17.5    15753 T     C         3   15753
    ## 10 RA2   B            37.5     30        57.5    16860 R     A         2   16860
    ## # … with 23 more rows, and abbreviated variable name ¹​mcra_droplets
…
    ## Warning: Expected 2 pieces. Additional pieces discarded in 76 rows [2, 3, 4, 5,
    ## 6, 7, 8, 9, 10, 11, 12, 13, 14, 15, 16, 17, 18, 19, 21, 22, ...].

    ## Warning: Expected 2 pieces. Missing pieces filled with `NA` in 4 rows [1, 20,
    ## 41, 60].

``` r
ddpcr_data_nirk %>% arrange(nirk_conc_unadj)
```

    ## # A tibble: 62 × 11
    ##    samp  bulk_agg dilution nirk_conc…¹ nirk_…² nirk_…³ nirk_…⁴ site  hzn     rep
    ##    <chr> <chr>       <dbl>       <dbl>   <dbl>   <dbl>   <dbl> <chr> <chr> <int>
    ##  1 RC1   B              10         0     12678      NA      NA R     C         1
    ##  2 RC1   B              10         0     12678      NA      NA R     C         1
    ##  3 RC2   B              10         0     11523      NA      NA R     C         2
    ##  4 RB2   B              10         2.1   13578     350     750 R     B         2
    ##  5 RB3   IN             10         2.1   12184     350     775 R     B         3
    ##  6 RC2   B              10         2.7   11523     450     950 R     C         2
    ##  7 RB3   IN             10         2.7   12184     450     950 R     B         3
    ##  8 TC3   B              10         3     12036     525    1050 T     C         3
    ##  9 RB1   IN             10         3.1   12357     550    1100 R     B         1
    ## 10 TC3   B              10         4.1   12996     750    1350 T     C         3
    ## # … with 52 more rows, 1 more variable: nirk_conc_adj <dbl>, and abbreviated
    ## #   variable names ¹​nirk_conc_unadj, ²​nirk_droplets, ³​nirk_min, ⁴​nirk_max
…
    ## `summarise()` has grouped output by 'site', 'hzn', 'rep'. You can override
    ## using the `.groups` argument.

``` r
ddpcr_data_nirk_av
```

    ## # A tibble: 28 × 5
    ## # Groups:   site, hzn, rep [17]
    ##    site  hzn     rep bulk_agg nirk_conc_adj
    ##    <chr> <chr> <int> <chr>            <dbl>
    ##  1 R     A         1 B                8662.
    ##  2 R     A         1 IN               2550 
    ##  3 R     A         2 B                1650 
    ##  4 R     A         2 IN               4600 
    ##  5 R     A         3 B               12750 
    ##  6 R     B         1 B                1725 
    ##  7 R     B         1 IN                900 
    ##  8 R     B         2 B                 800 
    ##  9 R     B         2 IN               2075 
    ## 10 R     B         3 B                2150 
    ## # … with 18 more rows
…
