…
    ## `summarise()` has grouped output by 'site', 'hzn', 'rep'. You can override
    ## using the `.groups` argument.

``` r
data_16s_adj
```

    ## # A tibble: 30 × 6
    ## # Groups:   site, hzn, rep [18]
    ##    site  hzn     rep bulk_agg sixteenS_conc_adj sixteenS_copies_per_g
    ##    <chr> <chr> <int> <chr>                <dbl>                 <dbl>
    ##  1 R     A         1 B                  2577500           1088986926.
    ##  2 R     A         1 IN                  346250            152385113.
    ##  3 R     A         2 B                   291250            118546946.
    ##  4 R     A         2 IN                  231250             87153016.
    ##  5 R     A         3 B                  1033750            433286577.
    ##  6 R     A         3 IN                  366250            159906498.
    ##  7 R     B         1 B                   713750            320340086.
    ##  8 R     B         1 IN                   60250             27040967.
    ##  9 R     B         2 B                   258750            115134528.
    ## 10 R     B         2 IN                  225000             96112302.
    ## # ℹ 20 more rows
…
